3_multi_4_go.txt
Cold,scheduler,sandbox,kubelet-user,kubelet-queue,app
12.6291896,0.330371,3.49233,1.627177,1.697634,0.000124
12.61556396,0.21869,2.891386,1.506446,2.396053,0.000104
10.38359645,0.192854,2.365917,0.930625,1.416615,9.9e-05
11.93459667,0.283015,2.662494,2.241246,1.826935,0.000102
14.43875843,0.089386,3.404649,2.23542,1.798733,0.000107
9.52756228,0.0927,1.609537,0.138373,1.068065,0.000112
7.49983054,0.019665,1.272578,0.527621,1.282391,0.013146
8.25299497,0.282553,2.123236,1.162834,0.95552,9.5e-05
11.07175554,0.060812,2.242531,1.184402,1.426073,0.001736
9.46195154,0.075023,1.298679,0.540862,1.307336,0.000126
9.25114549,0.059462,2.062745,1.071359,1.38874,0.000981
10.00685907,0.261047,1.633437,1.219498,1.084388,0.000137
8.04553529,0.026813,2.118057,0.808544,1.18507,0.0001
10.26097947,0.065869,1.936895,1.886634,1.091125,0.000104
9.24850910,0.211283,1.85061,1.933216,1.016971,0.000122
10.44229839,0.081767,2.113892,1.54653,1.219674,0.000102
10.90328470,0.325873,1.643512,0.84576,1.057636,9.9e-05
9.58436229,0.10305,2.325063,1.306663,1.388306,0.00011

3_multi_4_java-spring.txt
Cold,scheduler,sandbox,kubelet-user,kubelet-queue,app
11.20375886300000,0.191001,2.237582,1.497565,1.270468,5.96
16.05963966,0.19297,2.774233,1.491591,2.578654,7.42
12.93088318,0.248369,1.548105,0.005679,1.636596,6.04
10.7344196,0.027427,1.950715,1.312796,1.595795,6.29
13.37409805,0.036925,1.576524,0.433832,1.845622,6.23
13.226540,0.040343,1.750985,1.175122,1.797074,7.31
13.36394331,0.154763,1.405474,0.362671,1.915654,8.19
13.37020885,0.045456,1.708212,0.919701,1.354486,6.81
12.36512088,0.060062,2.114448,1.68919,1.469323,6.4
12.36080839,0.253403,1.547839,0.641934,1.741484,5.51
14.52032258,0.171757,2.107825,2.735914,2.771932,8.44
21.11604099,0.176725,2.470309,3.724422,2.938704,13.6

